{
  "project_info": {
    "project_number": "520450957170",
    "project_id": "reviewme-d312e",
    "storage_bucket": "reviewme-d312e.appspot.com"
  },
  "client": [
    {
      "client_info": {
        "mobilesdk_app_id": "1:520450957170:android:fbcab665fb1e0933d1c7eb",
        "android_client_info": {
          "package_name": "com.example.cinema_app"
        }
      },
      "oauth_client": [
        {
          "client_id": "520450957170-12bg1v247enmr5l1vuv9dlorm5ivj5co.apps.googleusercontent.com",
          "client_type": 3
        }
      ],
      "api_key": [
        {
          "current_key": "AIzaSyDaP4S13mxoSGCIlqJzS7JitiuqYHRPd64"
        }
      ],
      "services": {
        "appinvite_service": {
          "other_platform_oauth_client": [
            {
              "client_id": "520450957170-12bg1v247enmr5l1vuv9dlorm5ivj5co.apps.googleusercontent.com",
              "client_type": 3
            }
          ]
        }
      }
    }
  ],
  "configuration_version": "1"
}